^C:\USERS\300019280\SOURCE\REPOS\JBM.DEMO2\JBM.DEMO2\MAIN.CPP
C:\USERS\300019280\SOURCE\REPOS\JBM.DEMO2\JBM.DEMO2\DEBUG\VC141.PDB
C:\USERS\300019280\SOURCE\REPOS\JBM.DEMO2\JBM.DEMO2\DEBUG\VC141.IDB
C:\USERS\300019280\SOURCE\REPOS\JBM.DEMO2\JBM.DEMO2\DEBUG\MAIN.OBJ
